{
  "version": 2024010700,
  "url": "https://debconf24.debconf.org/schedule/pentabarf.xml",
  "title": "DebConf 24",
  "start": "2024-07-21",
  "end": "2024-08-04",
  "metadata": {
    "links": [
      {
        "url": "https://debconf24.debconf.org/",
        "title": "Website"
      }
    ]
  }
}
