<?xml version="1.0" encoding="UTF-8"?>
<!DOCTYPE svg  PUBLIC '-//W3C//DTD SVG 1.1//EN'  'http://www.w3.org/Graphics/SVG/1.1/DTD/svg11.dtd'>
<svg clip-rule="evenodd" fill-rule="evenodd" stroke-linejoin="round" stroke-miterlimit="2" version="1.1" viewBox="0 0 1895 1360" xml:space="preserve" xmlns="http://www.w3.org/2000/svg">
    <g transform="translate(-52.943 -210.11)">
        <g transform="matrix(1.064 0 0 1.064 -32.799 -281.6)">
            <path d="m752.62 1415s-283.34-86.13-300.32-394.51c-17.408-316.07 195.44-535.86 508.69-557.42 294.11-20.249 445.74 270.72 400.96 460.58-44.78 189.83-205.6 328.02-402.22 307.35-79.042-8.31-138.75-38.22-180.68-81.03-62.851-64.18-85.777-157.54-73.233-251.58 15.551-116.57 140.09-198.32 256.73-176.09 121.57 23.177 181.02 141.01 124.39 225.81-16.16 24.207-45.56 43.003-70.73 50.196-36.889 10.543-72.339 7.743-72.339 7.743-3.243-0.26-5.719-3.01-5.634-6.261l0.825-31.336c0.084-3.163 2.566-5.74 5.724-5.942 0 0 24.423-1.576 49.986-11.404 16.578-6.373 33.728-16.197 44.578-31.652 10.33-14.724 9.25-34.885-0.6-53.735-15.68-30.025-53.511-56.609-106.76-56.148-44.594 0.386-78.842 16.47-100.68 43.58-21.966 27.27-31.327 65.486-26.583 109.46 9.52 88.248 106.82 166.71 195.26 159.38 142.38-11.82 266.31-89.9 256.03-284.05-5.14-97.096-43.71-167.98-104.46-210.56-60.96-42.725-143.99-56.925-237.28-41.157-93.752 15.847-184.49 77.36-250.71 155.82-66.091 78.308-96.937 163.18-92.403 257.91 6.668 139.34 55.368 266.26 198.63 383.32 0.015 0.01 3.155 2.43 1.913 6.76-0.564 1.97-3.413 11.8-3.413 11.8-0.253 0.87-0.699 1.68-1.303 2.36l-8.029 9.03c-1.586 1.78-4.066 2.48-6.35 1.78z" fill="#f00"/>
            <path d="m370.02 1652s21.342-88.22 185.17-111.23c163.83-23.02 250.25 91.42 553.02 86.55 302.76-4.86 517.85-86.27 621.9-85.07 104.05 1.21 71.35 39.59 59.18 61.12-12.16 21.53 2.93 44.09-78.77 48.95-81.7 4.85-299.39 85.78-613.09 87.78-313.7 2-451.61-153.13-580.73-144.92s-146.68 56.82-146.68 56.82z" fill="#0078ff"/>
            <path d="m80.589 1462.8c-0.198 5.63 3.358 12.1 8.546 12.9 5.188 0.81 44.85-55.11 118.05-59.28 179.59-10.22 255.48 52.02 381.86 55.24 126.38 3.23 181.93-29.66 193.84-40.73s20.805-44.77 12.583-52.05c-8.223-7.27-106.86 35.97-250.18 35.97s-194.36-39.12-307.59-39.12c-113.22 0-156.91 81.45-157.11 87.07z" fill="#0078ff"/>
            <path d="m1243.4 1405.6c1.38-6.63 52.11-49.09 161.94-49.09s125.12 47.12 256.74 37.39c131.63-9.72 151.92-40.96 180.98-35.94 29.05 5.02 14.29 21.74 10.88 29.5-3.42 7.75-11.4 21.8-19.97 27.74-8.58 5.94-81.38 46.65-179.54 46.65s-230.97-62.34-311.38-62.34-81.4 19.78-91.03 16.87c-9.64-2.9-10-4.14-8.62-10.78z" fill="#0078ff"/>
            <path d="m879.42 1385.2s13.235-7.43 24.978-16.47c6.642-5.11 13.12-10.45 14.936-15.32 6.705-17.97 28.406-33.66 46.453-34.95 13.595-0.97 25.337 4.28 40.516 15.59 2.86-8.82 8.06-18.33 16.03-28.51 17.86-22.78 50.28-49.77 101.38-81.45 85.14-52.76 201.9-52.66 201.9-52.66 2.69 0 5.23 1.2 6.94 3.28l5.37 6.53c1.88 2.28 2.52 5.33 1.71 8.17-0.8 2.84-2.95 5.11-5.75 6.06 0 0-111.24 37.83-155.63 75.66-41.47 35.33-30.47 84.41-20.09 111.52 10.83 28.3 50.95 68.07 123.76 96.76 2.47 0.97 4.38 2.98 5.23 5.49s0.55 5.26-0.82 7.53c-12.35 20.47-27.57 39.76-41.23 57.11-1.86 2.36-4.79 3.64-7.79 3.4s-5.69-1.97-7.15-4.6c-5.97-10.75-20.44-22.95-37.68-35.31-27.56-19.78-62.3-39.38-85.18-52.49-36.32-20.82-62.36-31.01-105.25-26.01-41.191 14.13-77.149-14.26-85.298-23.63-0.753-0.87-2.15-1.43-3.706-2.11-2.621-1.13-5.723-2.09-8.893-2.91-10.298-2.68-21.316-3.89-21.316-3.89-3.888-0.43-7.055-3.32-7.835-7.15s1.004-7.73 4.415-9.64zm309.16-171.82c-18.92 6.65-37.85 15.15-55.38 26.01-48.64 30.15-79.71 55.57-96.7 77.26-10.03 12.8-14.95 23.91-14.96 33.85-0.01 3.49-2.03 6.66-5.18 8.14-3.16 1.48-6.89 1-9.57-1.23-16.574-13.77-26.63-21.93-39.724-21-12.005 0.86-26.411 11.34-30.871 23.3-2.07 5.54-7.496 12.06-14.483 18.12-4.235 3.68-9.019 7.27-13.619 10.48 2.198 0.56 4.377 1.17 6.449 1.85 7.007 2.28 12.828 5.51 15.795 8.93 6.347 7.3 34.481 29.69 66.622 18.15 0.634-0.23 1.291-0.38 1.959-0.46 47.982-5.81 76.942 5 117.33 28.14 11.41 6.54 25.72 14.67 40.65 23.64l22.68-29.07c-20.1-17.98-32.63-35.76-38.23-50.4-12.28-32.08-23.83-89.87 25.22-131.66 8.55-7.28 19.46-14.57 31.58-21.62l-9.57-22.43zm-220.66 159.03c-1.492 4.74-6.55 7.37-11.288 5.88s-7.373-6.55-5.881-11.29l2.072-6.58c1.492-4.73 6.55-7.37 11.288-5.88 4.738 1.5 7.373 6.55 5.881 11.29l-2.072 6.58z"/>
        </g>
    </g>
</svg>
